<?xml version="1.0" encoding="UTF-8" standalone="no" ?>
<!DOCTYPE svg PUBLIC "-//W3C//DTD SVG 1.1//EN" "http://www.w3.org/Graphics/SVG/1.1/DTD/svg11.dtd">
<svg xmlns="http://www.w3.org/2000/svg" xmlns:xlink="http://www.w3.org/1999/xlink" version="1.1" width="343.19" height="343.19" xml:space="preserve">
<desc>Created with Fabric.js 1.6.0-rc.1</desc>
<defs></defs>
<g style="stroke: none; stroke-width: 1; stroke-dasharray: none; stroke-linecap: butt; stroke-linejoin: miter; stroke-miterlimit: 10; fill: none; fill-rule: nonzero; opacity: 1;" transform="translate(10 10) scale(0.63 0.63)" >
  <circle cx="256" cy="256" r="256" style="stroke: none; stroke-width: 1; stroke-dasharray: none; stroke-linecap: butt; stroke-linejoin: miter; stroke-miterlimit: 10; fill: #d6082b; fill-rule: nonzero; opacity: 1;" transform="  matrix(1 0 0 1 0 0) "/>
  <path d="M 356.811 338.507 h -17.144 V 201.364 c 0 -15.95 -6.261 -30.997 -17.634 -42.367 c -11.37 -11.372 -26.417 -17.633 -42.366 -17.633 h -47.143 c -15.952 0 -30.996 6.261 -42.369 17.633 c -11.369 11.37 -17.631 26.417 -17.631 42.367 v 137.143 h -17.143 V 201.364 c 0 -42.537 34.605 -77.144 77.143 -77.144 h 47.143 c 42.536 0 77.144 34.606 77.144 77.144 L 356.811 338.507 L 356.811 338.507 z" style="stroke: none; stroke-width: 1; stroke-dasharray: none; stroke-linecap: butt; stroke-linejoin: miter; stroke-miterlimit: 10; fill: #FFFFFF; fill-rule: nonzero; opacity: 1;" transform=" matrix(1 0 0 1 0 0) " stroke-linecap="round" />
  <rect x="121.1" y="260.29" rx="0" ry="0" width="27.43" height="68.57" style="stroke: none; stroke-width: 1; stroke-dasharray: none; stroke-linecap: butt; stroke-linejoin: miter; stroke-miterlimit: 10; fill: #FFFFFF; fill-rule: nonzero; opacity: 1;" transform=" matrix(1 0 0 1 0 0) "/>
  <circle cx="134.813" cy="260.293" r="13.713" style="stroke: none; stroke-width: 1; stroke-dasharray: none; stroke-linecap: butt; stroke-linejoin: miter; stroke-miterlimit: 10; fill: #FFFFFF; fill-rule: nonzero; opacity: 1;" transform="  matrix(1 0 0 1 0 0) "/>
  <path d="M 148.522 328.864 c 0 -7.573 -6.139 -13.716 -13.713 -13.716 c -7.575 0 -13.714 6.143 -13.714 13.716 c 0 7.572 6.139 13.713 13.714 13.713 C 142.384 342.577 148.522 336.437 148.522 328.864 z" style="stroke: none; stroke-width: 1; stroke-dasharray: none; stroke-linecap: butt; stroke-linejoin: miter; stroke-miterlimit: 10; fill: #FFFFFF; fill-rule: nonzero; opacity: 1;" transform=" matrix(1 0 0 1 0 0) " stroke-linecap="round" />
  <path d="M 169.095 226.007 c -0.789 0 -5.29 0 -6.858 0 c -15.147 0 -27.427 12.28 -27.427 27.428 v 82.287 c 0 15.146 12.279 27.428 27.427 27.428 c 1.568 0 6.069 0 6.858 0 h 13.713 V 226.007 H 169.095 z" style="stroke: none; stroke-width: 1; stroke-dasharray: none; stroke-linecap: butt; stroke-linejoin: miter; stroke-miterlimit: 10; fill: #242C3C; fill-rule: nonzero; opacity: 1;" transform=" matrix(1 0 0 1 0 0) " stroke-linecap="round" />
  <path d="M 182.808 226.007 V 363.15 c 3.772 0 6.859 -3.086 6.859 -6.858 v -20.569 v -82.287 v -20.57 C 189.667 229.092 186.58 226.007 182.808 226.007 z" style="stroke: none; stroke-width: 1; stroke-dasharray: none; stroke-linecap: butt; stroke-linejoin: miter; stroke-miterlimit: 10; fill: #FFFFFF; fill-rule: nonzero; opacity: 1;" transform=" matrix(1 0 0 1 0 0) " stroke-linecap="round" />
  <rect x="363.67" y="260.29" rx="0" ry="0" width="27.43" height="68.57" style="stroke: none; stroke-width: 1; stroke-dasharray: none; stroke-linecap: butt; stroke-linejoin: miter; stroke-miterlimit: 10; fill: #FFFFFF; fill-rule: nonzero; opacity: 1;" transform=" matrix(1 0 0 1 0 0) "/>
  <circle cx="377.385" cy="260.295" r="13.715" style="stroke: none; stroke-width: 1; stroke-dasharray: none; stroke-linecap: butt; stroke-linejoin: miter; stroke-miterlimit: 10; fill: #FFFFFF; fill-rule: nonzero; opacity: 1;" transform="  matrix(1 0 0 1 0 0) "/>
  <path d="M 391.096 328.864 c 0 -7.573 -6.142 -13.716 -13.716 -13.716 s -13.715 6.143 -13.715 13.716 c 0 7.572 6.141 13.713 13.715 13.713 S 391.096 336.437 391.096 328.864 z" style="stroke: none; stroke-width: 1; stroke-dasharray: none; stroke-linecap: butt; stroke-linejoin: miter; stroke-miterlimit: 10; fill: #FFFFFF; fill-rule: nonzero; opacity: 1;" transform=" matrix(1 0 0 1 0 0) " stroke-linecap="round" />
  <path d="M 322.524 232.864 v 20.57 v 82.287 v 20.569 c 0 3.772 3.083 6.858 6.855 6.858 V 226.007 C 325.607 226.007 322.524 229.092 322.524 232.864 z" style="stroke: none; stroke-width: 1; stroke-dasharray: none; stroke-linecap: butt; stroke-linejoin: miter; stroke-miterlimit: 10; fill: #FFFFFF; fill-rule: nonzero; opacity: 1;" transform=" matrix(1 0 0 1 0 0) " stroke-linecap="round" />
  <path d="M 349.951 226.007 c -1.567 0 -6.065 0 -6.857 0 H 329.38 V 363.15 h 13.714 c 0.792 0 5.29 0 6.857 0 c 15.148 0 27.429 -12.282 27.429 -27.428 v -82.287 C 377.38 238.287 365.1 226.007 349.951 226.007 z" style="stroke: none; stroke-width: 1; stroke-dasharray: none; stroke-linecap: butt; stroke-linejoin: miter; stroke-miterlimit: 10; fill: #242C3C; fill-rule: nonzero; opacity: 1;" transform=" matrix(1 0 0 1 0 0) " stroke-linecap="round" />
  <path d="M 124.461 337.813 l -0.021 0.021 l 0.131 0.13 l 0.181 0.18 c -0.062 -0.065 -0.12 -0.135 -0.181 -0.201 C 124.533 337.899 124.498 337.857 124.461 337.813 z" style="stroke: none; stroke-width: 1; stroke-dasharray: none; stroke-linecap: butt; stroke-linejoin: miter; stroke-miterlimit: 10; fill: #d6082b; fill-rule: nonzero; opacity: 1;" transform=" matrix(1 0 0 1 0 0) " stroke-linecap="round" />
</g>
</svg>