%!PS-Adobe-3.0 EPSF-3.0
%%Creator: cairo 1.8.8 (http://cairographics.org)
%%CreationDate: Wed Nov 28 07:42:39 2018
%%Pages: 1
%%BoundingBox: 0 0 258 259
%%DocumentData: Clean7Bit
%%LanguageLevel: 2
%%EndComments
%%BeginProlog
/cairo_eps_state save def
/dict_count countdictstack def
/op_count count 1 sub def
userdict begin
/q { gsave } bind def
/Q { grestore } bind def
/cm { 6 array astore concat } bind def
/w { setlinewidth } bind def
/J { setlinecap } bind def
/j { setlinejoin } bind def
/M { setmiterlimit } bind def
/d { setdash } bind def
/m { moveto } bind def
/l { lineto } bind def
/c { curveto } bind def
/h { closepath } bind def
/re { exch dup neg 3 1 roll 5 3 roll moveto 0 rlineto
      0 exch rlineto 0 rlineto closepath } bind def
/S { stroke } bind def
/f { fill } bind def
/f* { eofill } bind def
/B { fill stroke } bind def
/B* { eofill stroke } bind def
/n { newpath } bind def
/W { clip } bind def
/W* { eoclip } bind def
/BT { } bind def
/ET { } bind def
/pdfmark where { pop globaldict /?pdfmark /exec load put }
    { globaldict begin /?pdfmark /pop load def /pdfmark
    /cleartomark load def end } ifelse
/BDC { mark 3 1 roll /BDC pdfmark } bind def
/EMC { mark /EMC pdfmark } bind def
/cairo_store_point { /cairo_point_y exch def /cairo_point_x exch def } def
/Tj { show currentpoint cairo_store_point } bind def
/TJ {
  {
    dup
    type /stringtype eq
    { show } { -0.001 mul 0 cairo_font_matrix dtransform rmoveto } ifelse
  } forall
  currentpoint cairo_store_point
} bind def
/cairo_selectfont { cairo_font_matrix aload pop pop pop 0 0 6 array astore
    cairo_font exch selectfont cairo_point_x cairo_point_y moveto } bind def
/Tf { pop /cairo_font exch def /cairo_font_matrix where
      { pop cairo_selectfont } if } bind def
/Td { matrix translate cairo_font_matrix matrix concatmatrix dup
      /cairo_font_matrix exch def dup 4 get exch 5 get cairo_store_point
      /cairo_font where { pop cairo_selectfont } if } bind def
/Tm { 2 copy 8 2 roll 6 array astore /cairo_font_matrix exch def
      cairo_store_point /cairo_font where { pop cairo_selectfont } if } bind def
/g { setgray } bind def
/rg { setrgbcolor } bind def
/d1 { setcachedevice } bind def
%%EndProlog
%%Page: 1 1
%%BeginPageSetup
%%PageBoundingBox: 0 0 258 259
%%EndPageSetup
q
0.839216 0.0313726 0.168627 rg
258.047 129.025 m 258.047 57.767 200.281 0.001 129.023 0.001 c 57.766 
0.001 0 57.767 0 129.025 c 0 200.282 57.766 258.048 129.023 258.048 c 
200.281 258.048 258.047 200.282 258.047 129.025 c h
258.047 129.025 m f
1 g
179.832 87.439 m 171.191 87.439 l 171.191 156.56 l 171.191 164.599 
168.035 172.185 162.305 177.915 c 156.574 183.646 148.992 186.802 
140.953 186.802 c 117.191 186.802 l 109.152 186.802 101.57 183.646 
95.84 177.915 c 90.109 172.185 86.953 164.599 86.953 156.56 c 86.953 
87.439 l 78.312 87.439 l 78.312 156.56 l 78.312 178.001 95.754 195.443 
117.191 195.443 c 140.953 195.443 l 162.391 195.443 179.832 178.001 
179.832 156.56 c 179.832 87.439 l 179.832 87.439 l h
179.832 87.439 m f
61.035 126.861 m 74.859 126.861 l 74.859 92.302 l 61.035 92.302 l 
61.035 126.861 l h
61.035 126.861 m f
74.855 126.861 m 74.855 123.044 71.762 119.95 67.945 119.95 c 64.129 
119.95 61.035 123.044 61.035 126.861 c 61.035 130.677 64.129 133.771 
67.945 133.771 c 71.762 133.771 74.855 130.677 74.855 126.861 c h
74.855 126.861 m f
74.855 92.302 m 74.855 96.118 71.762 99.212 67.945 99.212 c 64.125 
99.212 61.031 96.118 61.031 92.302 c 61.031 88.486 64.125 85.388 67.945 
85.388 c 71.762 85.388 74.855 88.486 74.855 92.302 c h
74.855 92.302 m f
0.141176 0.172549 0.235294 rg
85.223 144.142 m 81.766 144.142 l 74.133 144.142 67.945 137.95 67.945 
130.318 c 67.945 88.845 l 67.945 81.212 74.133 75.021 81.766 75.021 c 
85.223 75.021 l 92.137 75.021 l 92.137 144.142 l 85.223 144.142 l h
85.223 144.142 m f
1 g
92.137 144.142 m 92.137 75.021 l 94.035 75.021 95.594 76.575 95.594 
78.478 c 95.594 88.845 l 95.594 130.318 l 95.594 140.685 l 95.594 
142.587 94.035 144.142 92.137 144.142 c h
92.137 144.142 m f
183.289 126.861 m 197.113 126.861 l 197.113 92.302 l 183.289 92.302 l 
183.289 126.861 l h
183.289 126.861 m f
197.113 126.861 m 197.113 123.04 194.02 119.946 190.203 119.946 c 
186.383 119.946 183.289 123.04 183.289 126.861 c 183.289 130.677 
186.383 133.771 190.203 133.771 c 194.02 133.771 197.113 130.677 
197.113 126.861 c h
197.113 126.861 m f
197.113 92.302 m 197.113 96.118 194.016 99.212 190.199 99.212 c 186.383 
99.212 183.289 96.118 183.289 92.302 c 183.289 88.486 186.383 85.388 
190.199 85.388 c 194.016 85.388 197.113 88.486 197.113 92.302 c h
197.113 92.302 m f
162.551 140.685 m 162.551 130.318 l 162.551 88.845 l 162.551 78.478 l 
162.551 76.575 164.105 75.021 166.008 75.021 c 166.008 144.142 l 
164.105 144.142 162.551 142.587 162.551 140.685 c h
162.551 140.685 m f
0.141176 0.172549 0.235294 rg
176.375 144.142 m 172.918 144.142 l 166.008 144.142 l 166.008 75.021 l 
172.918 75.021 l 176.375 75.021 l 184.012 75.021 190.199 81.212 190.199 
88.845 c 190.199 130.318 l 190.199 137.95 184.012 144.142 176.375 
144.142 c h
176.375 144.142 m f
0.839216 0.0313726 0.168627 rg
62.727 87.79 m 62.719 87.778 l 62.785 87.716 l 62.875 87.622 l 62.844 
87.657 62.816 87.693 62.785 87.724 c 62.766 87.747 62.746 87.767 62.727 
87.79 c h
62.727 87.79 m f
Q
showpage
%%Trailer
count op_count sub {pop} repeat
countdictstack dict_count sub {end} repeat
cairo_eps_state restore
%%EOF
